{
	"highlight.disableLanguages": ["markdown", "csv", "text"],
	"git.addGBlameToVirtualText": true,

	"explorer.icon.enableNerdfont": true,
	"explorer.width": 30,

	"tabnine.disable_filetypes": ["markdown", "csv", "text"],

	"codeLens.enable": true,

	"suggest.floatConfig": {
		"border": true
	},

	"diagnostic.floatConfig": {
		"border": true
	},

	"signature.floatConfig": {
		"border": true
	},

	"hover.floatConfig": {
		"border": true
	},

  "svelte.enable-ts-plugin": true,

	"ltex.language": "auto",

	"languageserver": {// {{{
		"fortran": {
			"command": "fortls",
			"filetypes": ["fortran"],
			"rootPatterns": [".fortls", ".git/"]
		},
		"godot": {
			"host": "127.0.0.1",
			"filetypes": ["gdscript"],
			"port": 6008
		},
		"omnisharp": {
			"command": "omnisharp",
			"args": ["-lsp"],
			"filetypes": ["cs"]
		}
	},
	// }}}

	"suggest.completionItemKindLabels": {// {{{
		"keyword": "\uf1de",
		"variable": "\ue79b",
		"value": "\uf89f",
		"operator": "\u03a8",
		"constructor": "\uf0ad",
		"function": "\u0192",
		"reference": "\ufa46",
		"constant": "\uf8fe",
		"method": "\uf09a",
		"struct": "\ufb44",
		"class": "\uf0e8",
		"interface": "\uf417",
		"text": "\ue612",
		"enum": "\uf435",
		"enumMember": "\uf02b",
		"module": "\uf40d",
		"color": "\ue22b",
		"property": "\ue624",
		"field": "\uf9be",
		"unit": "\uf475",
		"event": "\ufacd",
		"file": "\uf723",
		"folder": "\uf114",
		"snippet": "\ue60b",
		"typeParameter": "\uf728",
		"default": "\uf29c"
	}
}
// }}}
